<?xml version="1.0" encoding="UTF-8" standalone="no"?>
<!DOCTYPE svg PUBLIC "-//W3C//DTD SVG 1.1//EN"
 "http://www.w3.org/Graphics/SVG/1.1/DTD/svg11.dtd">
<!-- Generated by graphviz version 2.40.1 (20161225.0304)
 -->
<!-- Title: %3 Pages: 1 -->
<svg width="924pt" height="487pt"
 viewBox="0.00 0.00 924.02 487.00" xmlns="http://www.w3.org/2000/svg" xmlns:xlink="http://www.w3.org/1999/xlink">
<g id="graph0" class="graph" transform="scale(1 1) rotate(0) translate(4 483)">
<title>%3</title>
<polygon fill="#ffffff" stroke="transparent" points="-4,4 -4,-483 920.0176,-483 920.0176,4 -4,4"/>
<text text-anchor="middle" x="458.0088" y="-6.4" font-family="sans-serif" font-size="12.00" fill="#000000">Faaster Modules &#45; Model</text>
<g id="clust1" class="cluster">
<title>cluster_server</title>
<polygon fill="none" stroke="#708090" stroke-dasharray="5,2" points="8,-28 8,-471 810.9043,-471 810.9043,-28 8,-28"/>
<text text-anchor="middle" x="409.4521" y="-457.4" font-family="sans-serif" font-size="12.00" fill="#000000">FAAS App</text>
</g>
<g id="clust2" class="cluster">
<title>cluster_prim</title>
<polygon fill="none" stroke="#708090" stroke-dasharray="5,2" points="105,-36 105,-240 676.1436,-240 676.1436,-36 105,-36"/>
<text text-anchor="middle" x="390.5718" y="-226.4" font-family="sans-serif" font-size="12.00" fill="#000000">Shared Role</text>
</g>
<g id="clust5" class="cluster">
<title>cluster_high</title>
<polygon fill="none" stroke="#708090" stroke-dasharray="5,2" points="113.064,-248 113.064,-443 691.5303,-443 691.5303,-248 113.064,-248"/>
<text text-anchor="middle" x="402.2971" y="-429.4" font-family="sans-serif" font-size="12.00" fill="#000000">Per&#45;method Roles</text>
</g>
<g id="clust9" class="cluster">
<title>cluster_client</title>
<polygon fill="none" stroke="#c0c0c0" points="838.0176,-184 838.0176,-258 908.0176,-258 908.0176,-184 838.0176,-184"/>
<text text-anchor="middle" x="873.0176" y="-244.4" font-family="sans-serif" font-size="12.00" fill="#000000">Client</text>
</g>
<!-- api -->
<g id="node1" class="node">
<title>api</title>
<path fill="none" stroke="#000000" d="M28,-232C28,-232 58,-232 58,-232 64,-232 70,-238 70,-244 70,-244 70,-256 70,-256 70,-262 64,-268 58,-268 58,-268 28,-268 28,-268 22,-268 16,-262 16,-256 16,-256 16,-244 16,-244 16,-238 22,-232 28,-232"/>
<text text-anchor="middle" x="43" y="-247" font-family="Menlo,Courier,monospace" font-size="10.00" fill="#000000">api</text>
</g>
<!-- res_one -->
<g id="node2" class="node">
<title>res_one</title>
<path fill="none" stroke="#000000" d="M133.064,-154C133.064,-154 194.8765,-154 194.8765,-154 200.8765,-154 206.8765,-160 206.8765,-166 206.8765,-166 206.8765,-178 206.8765,-178 206.8765,-184 200.8765,-190 194.8765,-190 194.8765,-190 133.064,-190 133.064,-190 127.064,-190 121.064,-184 121.064,-178 121.064,-178 121.064,-166 121.064,-166 121.064,-160 127.064,-154 133.064,-154"/>
<text text-anchor="middle" x="163.9702" y="-174" font-family="Menlo,Courier,monospace" font-size="10.00" fill="#000000">api_resource</text>
<text text-anchor="middle" x="163.9702" y="-164" font-family="Menlo,Courier,monospace" font-size="10.00" fill="#000000">(one)</text>
</g>
<!-- api&#45;&gt;res_one -->
<g id="edge1" class="edge">
<title>api&#45;&gt;res_one</title>
<path fill="none" stroke="#000000" d="M70.1481,-232.4953C87.672,-221.1961 110.6252,-206.3962 129.4421,-194.2633"/>
<polygon fill="#000000" stroke="#000000" points="131.0956,-196.1123 135.651,-190.2598 128.4403,-191.9941 131.0956,-196.1123"/>
</g>
<!-- res_two -->
<g id="node3" class="node">
<title>res_two</title>
<path fill="none" stroke="#000000" d="M133.064,-311C133.064,-311 194.8765,-311 194.8765,-311 200.8765,-311 206.8765,-317 206.8765,-323 206.8765,-323 206.8765,-335 206.8765,-335 206.8765,-341 200.8765,-347 194.8765,-347 194.8765,-347 133.064,-347 133.064,-347 127.064,-347 121.064,-341 121.064,-335 121.064,-335 121.064,-323 121.064,-323 121.064,-317 127.064,-311 133.064,-311"/>
<text text-anchor="middle" x="163.9702" y="-331" font-family="Menlo,Courier,monospace" font-size="10.00" fill="#000000">api_resource</text>
<text text-anchor="middle" x="163.9702" y="-321" font-family="Menlo,Courier,monospace" font-size="10.00" fill="#000000">(two)</text>
</g>
<!-- api&#45;&gt;res_two -->
<g id="edge2" class="edge">
<title>api&#45;&gt;res_two</title>
<path fill="none" stroke="#000000" d="M70.1481,-267.7291C87.7972,-279.2549 110.9533,-294.3772 129.8446,-306.7142"/>
<polygon fill="#000000" stroke="#000000" points="128.8731,-309.0058 136.0736,-310.782 131.5523,-304.9032 128.8731,-309.0058"/>
</g>
<!-- l_fn_GET_one -->
<g id="node6" class="node">
<title>l_fn_GET_one</title>
<path fill="none" stroke="#000000" d="M313.3271,-45C313.3271,-45 421.8486,-45 421.8486,-45 427.8486,-45 433.8486,-51 433.8486,-57 433.8486,-57 433.8486,-69 433.8486,-69 433.8486,-75 427.8486,-81 421.8486,-81 421.8486,-81 313.3271,-81 313.3271,-81 307.3271,-81 301.3271,-75 301.3271,-69 301.3271,-69 301.3271,-57 301.3271,-57 301.3271,-51 307.3271,-45 313.3271,-45"/>
<text text-anchor="middle" x="367.5879" y="-65" font-family="Menlo,Courier,monospace" font-size="10.00" fill="#000000">api_lambda_method_fn</text>
<text text-anchor="middle" x="367.5879" y="-55" font-family="Menlo,Courier,monospace" font-size="10.00" fill="#000000">(GET,one)</text>
</g>
<!-- res_one&#45;&gt;l_fn_GET_one -->
<g id="edge3" class="edge">
<title>res_one&#45;&gt;l_fn_GET_one</title>
<path fill="none" stroke="#000000" d="M198.4035,-153.7891C215.3207,-144.8599 232.1739,-136 232.4404,-136 232.4404,-136 232.4404,-136 268.4404,-136 281.6416,-136 276.1975,-120.9077 285.9404,-112 297.2644,-101.6468 311.1093,-92.3601 324.1587,-84.7273"/>
<polygon fill="#000000" stroke="#000000" points="325.6214,-86.7135 330.4864,-81.1158 323.1924,-82.4579 325.6214,-86.7135"/>
</g>
<!-- res_one_one -->
<g id="node7" class="node">
<title>res_one_one</title>
<path fill="none" stroke="#000000" d="M336.6816,-121C336.6816,-121 398.4941,-121 398.4941,-121 404.4941,-121 410.4941,-127 410.4941,-133 410.4941,-133 410.4941,-145 410.4941,-145 410.4941,-151 404.4941,-157 398.4941,-157 398.4941,-157 336.6816,-157 336.6816,-157 330.6816,-157 324.6816,-151 324.6816,-145 324.6816,-145 324.6816,-133 324.6816,-133 324.6816,-127 330.6816,-121 336.6816,-121"/>
<text text-anchor="middle" x="367.5879" y="-141" font-family="Menlo,Courier,monospace" font-size="10.00" fill="#000000">api_resource</text>
<text text-anchor="middle" x="367.5879" y="-131" font-family="Menlo,Courier,monospace" font-size="10.00" fill="#000000">(one/one)</text>
</g>
<!-- res_one&#45;&gt;res_one_one -->
<g id="edge6" class="edge">
<title>res_one&#45;&gt;res_one_one</title>
<path fill="none" stroke="#000000" d="M206.9804,-165.4302C215.4019,-164.5812 224.1825,-164 232.4404,-164 232.4404,-164 232.4404,-164 268.4404,-164 284.6043,-164 301.813,-160.8373 317.2782,-156.7616"/>
<polygon fill="#000000" stroke="#000000" points="318.1577,-159.0604 324.2512,-154.8329 316.8513,-154.3378 318.1577,-159.0604"/>
</g>
<!-- res_two_one -->
<g id="node10" class="node">
<title>res_two_one</title>
<path fill="none" stroke="#000000" d="M336.6816,-311C336.6816,-311 398.4941,-311 398.4941,-311 404.4941,-311 410.4941,-317 410.4941,-323 410.4941,-323 410.4941,-335 410.4941,-335 410.4941,-341 404.4941,-347 398.4941,-347 398.4941,-347 336.6816,-347 336.6816,-347 330.6816,-347 324.6816,-341 324.6816,-335 324.6816,-335 324.6816,-323 324.6816,-323 324.6816,-317 330.6816,-311 336.6816,-311"/>
<text text-anchor="middle" x="367.5879" y="-331" font-family="Menlo,Courier,monospace" font-size="10.00" fill="#000000">api_resource</text>
<text text-anchor="middle" x="367.5879" y="-321" font-family="Menlo,Courier,monospace" font-size="10.00" fill="#000000">(two/one)</text>
</g>
<!-- res_two&#45;&gt;res_two_one -->
<g id="edge10" class="edge">
<title>res_two&#45;&gt;res_two_one</title>
<path fill="none" stroke="#000000" d="M207.0697,-329C215.4834,-329 224.2383,-329 232.4404,-329 232.4404,-329 232.4404,-329 268.4404,-329 284.4123,-329 301.8315,-329 317.5504,-329"/>
<polygon fill="#000000" stroke="#000000" points="317.6418,-331.4501 324.6417,-329 317.6417,-326.5501 317.6418,-331.4501"/>
</g>
<!-- l_meth_POST_two -->
<g id="node12" class="node">
<title>l_meth_POST_two</title>
<path fill="none" stroke="#000000" d="M297.9404,-366C297.9404,-366 437.2354,-366 437.2354,-366 443.2354,-366 449.2354,-372 449.2354,-378 449.2354,-378 449.2354,-402 449.2354,-402 449.2354,-408 443.2354,-414 437.2354,-414 437.2354,-414 297.9404,-414 297.9404,-414 291.9404,-414 285.9404,-408 285.9404,-402 285.9404,-402 285.9404,-378 285.9404,-378 285.9404,-372 291.9404,-366 297.9404,-366"/>
<text text-anchor="middle" x="345.2505" y="-392" font-family="Menlo,Courier,monospace" font-size="10.00" fill="#000000">api_lambda_method</text>
<text text-anchor="middle" x="345.2505" y="-382" font-family="Menlo,Courier,monospace" font-size="10.00" fill="#000000">(GET,two)</text>
<polyline fill="none" stroke="#000000" points="404.5605,-366 404.5605,-414 "/>
<text text-anchor="middle" x="426.8979" y="-399" font-family="Menlo,Courier,monospace" font-size="10.00" fill="#000000">role</text>
<polyline fill="none" stroke="#000000" points="404.5605,-390 449.2354,-390 "/>
<text text-anchor="middle" x="426.8979" y="-375" font-family="Menlo,Courier,monospace" font-size="10.00" fill="#000000">fn</text>
</g>
<!-- res_two&#45;&gt;l_meth_POST_two -->
<g id="edge11" class="edge">
<title>res_two&#45;&gt;l_meth_POST_two</title>
<path fill="none" stroke="#000000" d="M190.0689,-347.0328C202.3599,-353.8526 217.5648,-360 232.4404,-360 232.4404,-360 232.4404,-360 268.4404,-360 279.2834,-360 290.5186,-361.6641 301.3597,-364.2084"/>
<polygon fill="#000000" stroke="#000000" points="301.0314,-366.6526 308.4189,-365.9988 302.2361,-361.903 301.0314,-366.6526"/>
</g>
<!-- l_role_shared -->
<g id="node4" class="node">
<title>l_role_shared</title>
<path fill="none" stroke="#000000" d="M125,-99C125,-99 202.9404,-99 202.9404,-99 208.9404,-99 214.9404,-105 214.9404,-111 214.9404,-111 214.9404,-123 214.9404,-123 214.9404,-129 208.9404,-135 202.9404,-135 202.9404,-135 125,-135 125,-135 119,-135 113,-129 113,-123 113,-123 113,-111 113,-111 113,-105 119,-99 125,-99"/>
<text text-anchor="middle" x="163.9702" y="-119" font-family="Menlo,Courier,monospace" font-size="10.00" fill="#000000">api_lambda_role</text>
<text text-anchor="middle" x="163.9702" y="-109" font-family="Menlo,Courier,monospace" font-size="10.00" fill="#000000">(shared)</text>
</g>
<!-- l_role_shared&#45;&gt;l_fn_GET_one -->
<g id="edge4" class="edge">
<title>l_role_shared&#45;&gt;l_fn_GET_one</title>
<path fill="none" stroke="#000000" d="M196.9824,-98.7891C213.4406,-89.8599 230.3084,-81 232.4404,-81 232.4404,-81 232.4404,-81 268.4404,-81 276.7776,-81 285.4467,-80.3762 294.0351,-79.3609"/>
<polygon fill="#000000" stroke="#000000" points="294.5982,-81.7582 301.2214,-78.421 293.9627,-76.8996 294.5982,-81.7582"/>
</g>
<!-- l_fn_GET_one_one -->
<g id="node9" class="node">
<title>l_fn_GET_one_one</title>
<path fill="none" stroke="#000000" d="M547.6221,-144C547.6221,-144 656.1436,-144 656.1436,-144 662.1436,-144 668.1436,-150 668.1436,-156 668.1436,-156 668.1436,-168 668.1436,-168 668.1436,-174 662.1436,-180 656.1436,-180 656.1436,-180 547.6221,-180 547.6221,-180 541.6221,-180 535.6221,-174 535.6221,-168 535.6221,-168 535.6221,-156 535.6221,-156 535.6221,-150 541.6221,-144 547.6221,-144"/>
<text text-anchor="middle" x="601.8828" y="-164" font-family="Menlo,Courier,monospace" font-size="10.00" fill="#000000">api_lambda_method_fn</text>
<text text-anchor="middle" x="601.8828" y="-154" font-family="Menlo,Courier,monospace" font-size="10.00" fill="#000000">(GET,one/one)</text>
</g>
<!-- l_role_shared&#45;&gt;l_fn_GET_one_one -->
<g id="edge7" class="edge">
<title>l_role_shared&#45;&gt;l_fn_GET_one_one</title>
<path fill="none" stroke="#000000" d="M215.2666,-102.3642C221.0169,-101.5166 226.825,-101 232.4404,-101 232.4404,-101 232.4404,-101 502.7354,-101 521.7337,-101 505.7796,-127.6724 520.2354,-140 522.9546,-142.3189 525.895,-144.3958 528.9899,-146.2556"/>
<polygon fill="#000000" stroke="#000000" points="528.2127,-148.6193 535.5383,-149.7764 530.5331,-144.3036 528.2127,-148.6193"/>
</g>
<!-- code_fn_GET_one -->
<g id="node5" class="node">
<title>code_fn_GET_one</title>
<polygon fill="none" stroke="#0000ff" points="198.2216,-80 123.7188,-80 123.7188,-44 204.2216,-44 204.2216,-74 198.2216,-80"/>
<polyline fill="none" stroke="#0000ff" points="198.2216,-80 198.2216,-74 "/>
<polyline fill="none" stroke="#0000ff" points="204.2216,-74 198.2216,-74 "/>
<text text-anchor="middle" x="163.9702" y="-64" font-family="Menlo,Courier,monospace" font-size="10.00" fill="#000000">functions/</text>
<text text-anchor="middle" x="163.9702" y="-54" font-family="Menlo,Courier,monospace" font-size="10.00" fill="#000000">POST_one/</text>
</g>
<!-- code_fn_GET_one&#45;&gt;l_fn_GET_one -->
<g id="edge5" class="edge">
<title>code_fn_GET_one&#45;&gt;l_fn_GET_one</title>
<path fill="none" stroke="#000000" d="M204.1569,-61.217C213.4445,-61.0905 223.2863,-61 232.4404,-61 232.4404,-61 232.4404,-61 268.4404,-61 276.7125,-61 285.3719,-61.0704 293.982,-61.1849"/>
<polygon fill="#000000" stroke="#000000" points="294.158,-63.6377 301.1933,-61.2908 294.23,-58.7382 294.158,-63.6377"/>
</g>
<!-- deploy -->
<g id="node15" class="node">
<title>deploy</title>
<path fill="none" stroke="#000000" d="M738.5303,-193C738.5303,-193 790.9043,-193 790.9043,-193 796.9043,-193 802.9043,-199 802.9043,-205 802.9043,-205 802.9043,-217 802.9043,-217 802.9043,-223 796.9043,-229 790.9043,-229 790.9043,-229 738.5303,-229 738.5303,-229 732.5303,-229 726.5303,-223 726.5303,-217 726.5303,-217 726.5303,-205 726.5303,-205 726.5303,-199 732.5303,-193 738.5303,-193"/>
<text text-anchor="middle" x="764.7173" y="-208" font-family="Menlo,Courier,monospace" font-size="10.00" fill="#000000">api_deploy</text>
</g>
<!-- l_fn_GET_one&#45;&gt;deploy -->
<g id="edge15" class="edge">
<title>l_fn_GET_one&#45;&gt;deploy</title>
<path fill="none" stroke="#000000" d="M433.9109,-70.6913C444.8613,-71.4806 456.1058,-72 466.7354,-72 466.7354,-72 466.7354,-72 709.0303,-72 733.2588,-72 751.7277,-145.6918 759.9794,-185.7627"/>
<polygon fill="#000000" stroke="#000000" points="757.6183,-186.4487 761.4004,-192.8282 762.4221,-185.4825 757.6183,-186.4487"/>
</g>
<!-- res_one_one&#45;&gt;l_fn_GET_one_one -->
<g id="edge8" class="edge">
<title>res_one_one&#45;&gt;l_fn_GET_one_one</title>
<path fill="none" stroke="#000000" d="M410.9627,-144.0211C428.2854,-145.6284 448.4302,-147 466.7354,-147 466.7354,-147 466.7354,-147 502.7354,-147 511.0318,-147 519.6753,-147.5198 528.2491,-148.3659"/>
<polygon fill="#000000" stroke="#000000" points="528.201,-150.8251 535.4255,-149.1491 528.7327,-145.9541 528.201,-150.8251"/>
</g>
<!-- code_fn_GET_one_one -->
<g id="node8" class="node">
<title>code_fn_GET_one_one</title>
<polygon fill="none" stroke="#0000ff" points="409.4152,-212 319.7606,-212 319.7606,-176 415.4152,-176 415.4152,-206 409.4152,-212"/>
<polyline fill="none" stroke="#0000ff" points="409.4152,-212 409.4152,-206 "/>
<polyline fill="none" stroke="#0000ff" points="415.4152,-206 409.4152,-206 "/>
<text text-anchor="middle" x="367.5879" y="-196" font-family="Menlo,Courier,monospace" font-size="10.00" fill="#000000">functions/</text>
<text text-anchor="middle" x="367.5879" y="-186" font-family="Menlo,Courier,monospace" font-size="10.00" fill="#000000">GET_one_one/</text>
</g>
<!-- code_fn_GET_one_one&#45;&gt;l_fn_GET_one_one -->
<g id="edge9" class="edge">
<title>code_fn_GET_one_one&#45;&gt;l_fn_GET_one_one</title>
<path fill="none" stroke="#000000" d="M415.6496,-187.1916C431.8437,-185.4209 450.0404,-184 466.7354,-184 466.7354,-184 466.7354,-184 502.7354,-184 512.6918,-184 523.0799,-182.9296 533.2249,-181.2609"/>
<polygon fill="#000000" stroke="#000000" points="533.7405,-183.6577 540.2012,-180.016 532.8796,-178.8339 533.7405,-183.6577"/>
</g>
<!-- l_fn_GET_one_one&#45;&gt;deploy -->
<g id="edge16" class="edge">
<title>l_fn_GET_one_one&#45;&gt;deploy</title>
<path fill="none" stroke="#000000" d="M662.0537,-180.1066C681.0889,-185.8346 701.7901,-192.064 719.5843,-197.4186"/>
<polygon fill="#000000" stroke="#000000" points="719.097,-199.8304 726.5061,-199.5015 720.509,-195.1383 719.097,-199.8304"/>
</g>
<!-- l_meth_GET_two_one -->
<g id="node14" class="node">
<title>l_meth_GET_two_one</title>
<path fill="none" stroke="#000000" d="M532.2354,-257C532.2354,-257 671.5303,-257 671.5303,-257 677.5303,-257 683.5303,-263 683.5303,-269 683.5303,-269 683.5303,-293 683.5303,-293 683.5303,-299 677.5303,-305 671.5303,-305 671.5303,-305 532.2354,-305 532.2354,-305 526.2354,-305 520.2354,-299 520.2354,-293 520.2354,-293 520.2354,-269 520.2354,-269 520.2354,-263 526.2354,-257 532.2354,-257"/>
<text text-anchor="middle" x="579.5454" y="-283" font-family="Menlo,Courier,monospace" font-size="10.00" fill="#000000">api_lambda_method</text>
<text text-anchor="middle" x="579.5454" y="-273" font-family="Menlo,Courier,monospace" font-size="10.00" fill="#000000">(GET,two/one)</text>
<polyline fill="none" stroke="#000000" points="638.8555,-257 638.8555,-305 "/>
<text text-anchor="middle" x="661.1929" y="-290" font-family="Menlo,Courier,monospace" font-size="10.00" fill="#000000">role</text>
<polyline fill="none" stroke="#000000" points="638.8555,-281 683.5303,-281 "/>
<text text-anchor="middle" x="661.1929" y="-266" font-family="Menlo,Courier,monospace" font-size="10.00" fill="#000000">fn</text>
</g>
<!-- res_two_one&#45;&gt;l_meth_GET_two_one -->
<g id="edge13" class="edge">
<title>res_two_one&#45;&gt;l_meth_GET_two_one</title>
<path fill="none" stroke="#000000" d="M410.863,-320.8407C428.1718,-318.2288 448.3333,-316 466.7354,-316 466.7354,-316 466.7354,-316 502.7354,-316 502.9716,-316 513.431,-312.3371 527.4746,-307.3813"/>
<polygon fill="#000000" stroke="#000000" points="528.3708,-309.6631 534.1554,-305.0218 526.739,-305.0428 528.3708,-309.6631"/>
</g>
<!-- code_fn_GET_two -->
<g id="node11" class="node">
<title>code_fn_GET_two</title>
<polygon fill="none" stroke="#0000ff" points="197.5982,-408 124.3422,-408 124.3422,-372 203.5982,-372 203.5982,-402 197.5982,-408"/>
<polyline fill="none" stroke="#0000ff" points="197.5982,-408 197.5982,-402 "/>
<polyline fill="none" stroke="#0000ff" points="203.5982,-402 197.5982,-402 "/>
<text text-anchor="middle" x="163.9702" y="-392" font-family="Menlo,Courier,monospace" font-size="10.00" fill="#000000">functions/</text>
<text text-anchor="middle" x="163.9702" y="-382" font-family="Menlo,Courier,monospace" font-size="10.00" fill="#000000">POST_two/</text>
</g>
<!-- code_fn_GET_two&#45;&gt;l_meth_POST_two -->
<g id="edge12" class="edge">
<title>code_fn_GET_two&#45;&gt;l_meth_POST_two</title>
<path fill="none" stroke="#000000" d="M203.7967,-390C213.1901,-390 223.1684,-390 232.4404,-390 232.4404,-390 232.4404,-390 268.4404,-390 271.8131,-390 275.2503,-390 278.7225,-390"/>
<polygon fill="#000000" stroke="#000000" points="278.889,-392.4501 285.889,-390 278.889,-387.5501 278.889,-392.4501"/>
</g>
<!-- l_meth_POST_two&#45;&gt;deploy -->
<g id="edge17" class="edge">
<title>l_meth_POST_two&#45;&gt;deploy</title>
<path fill="none" stroke="#000000" d="M434.3986,-365.9355C439.5707,-363.1965 444.5835,-360.2188 449.2354,-357 458.6762,-350.4676 455.2548,-338 466.7354,-338 466.7354,-338 466.7354,-338 709.0303,-338 731.0364,-338 750.0107,-273.2357 759.0612,-236.205"/>
<polygon fill="#000000" stroke="#000000" points="761.492,-236.5739 760.737,-229.196 756.7263,-235.4344 761.492,-236.5739"/>
</g>
<!-- code_fn_GET_two_one -->
<g id="node13" class="node">
<title>code_fn_GET_two_one</title>
<polygon fill="none" stroke="#0000ff" points="412.4626,-292 316.7132,-292 316.7132,-256 418.4626,-256 418.4626,-286 412.4626,-292"/>
<polyline fill="none" stroke="#0000ff" points="412.4626,-292 412.4626,-286 "/>
<polyline fill="none" stroke="#0000ff" points="418.4626,-286 412.4626,-286 "/>
<text text-anchor="middle" x="367.5879" y="-276" font-family="Menlo,Courier,monospace" font-size="10.00" fill="#000000">functions/</text>
<text text-anchor="middle" x="367.5879" y="-266" font-family="Menlo,Courier,monospace" font-size="10.00" fill="#000000">POST_two_one/</text>
</g>
<!-- code_fn_GET_two_one&#45;&gt;l_meth_GET_two_one -->
<g id="edge14" class="edge">
<title>code_fn_GET_two_one&#45;&gt;l_meth_GET_two_one</title>
<path fill="none" stroke="#000000" d="M418.5206,-276.843C433.9991,-277.4946 451.0587,-278 466.7354,-278 466.7354,-278 466.7354,-278 502.7354,-278 506.1096,-278 509.5481,-278.0176 513.0213,-278.05"/>
<polygon fill="#000000" stroke="#000000" points="513.1607,-280.5018 520.1898,-278.1367 513.22,-275.6022 513.1607,-280.5018"/>
</g>
<!-- l_meth_GET_two_one&#45;&gt;deploy -->
<g id="edge18" class="edge">
<title>l_meth_GET_two_one&#45;&gt;deploy</title>
<path fill="none" stroke="#000000" d="M660.8277,-256.9882C671.0872,-252.7187 681.6369,-248.2708 691.5303,-244 700.7838,-240.0054 710.6492,-235.6345 720.0425,-231.4185"/>
<polygon fill="#000000" stroke="#000000" points="721.0794,-233.6386 726.4567,-228.5311 719.0679,-229.1705 721.0794,-233.6386"/>
</g>
<!-- client -->
<g id="node16" class="node">
<title>client</title>
<path fill="none" stroke="#000000" d="M858.0176,-193C858.0176,-193 888.0176,-193 888.0176,-193 894.0176,-193 900.0176,-199 900.0176,-205 900.0176,-205 900.0176,-217 900.0176,-217 900.0176,-223 894.0176,-229 888.0176,-229 888.0176,-229 858.0176,-229 858.0176,-229 852.0176,-229 846.0176,-223 846.0176,-217 846.0176,-217 846.0176,-205 846.0176,-205 846.0176,-199 852.0176,-193 858.0176,-193"/>
<text text-anchor="middle" x="873.0176" y="-208" font-family="Menlo,Courier,monospace" font-size="10.00" fill="#000000">client</text>
</g>
<!-- deploy&#45;&gt;client -->
<g id="edge19" class="edge">
<title>deploy&#45;&gt;client</title>
<path fill="none" stroke="#000000" d="M803.2049,-211C814.7755,-211 827.39,-211 838.6738,-211"/>
<polygon fill="#000000" stroke="#000000" points="838.8723,-213.4501 845.8723,-211 838.8722,-208.5501 838.8723,-213.4501"/>
<text text-anchor="middle" x="824.4609" y="-213" font-family="sans-serif" font-size="10.00" fill="#000000">url</text>
</g>
</g>
</svg>
